{
  "shell_port": 60537,
  "iopub_port": 42785,
  "stdin_port": 58057,
  "control_port": 35979,
  "hb_port": 51385,
  "ip": "127.0.0.1",
  "key": "cbe0d8bc-07f5970a34df4ef0c014df43",
  "transport": "tcp",
  "signature_scheme": "hmac-sha256",
  "kernel_name": ""
}